test_run_dir/FixedPoint/Pipeline/Multiplier/SplitMultiplier.vcd
$date
2026-03-14T16:01+0000
$end
$version
0.2
$end
$comment

$end
$timescale 1ns  $end
$scope module SplitMultiplier $end
 $var wire 32 ! acc $end
 $var wire 1 " REG_2 $end
 $var wire 32 # REG__2 $end
 $var wire 32 $ REG_1 $end
 $var wire 32 % REG__1 $end
 $var wire 32 & REG__0 $end
 $var wire 1 ' REG_5 $end
 $var wire 32 ( REG_4 $end
 $var wire 4 ) bChunk_1 $end
 $var wire 32 * REG_6_0 $end
 $var wire 1 + REG_8 $end
 $var wire 4 , bChunk_3 $end
 $var wire 32 - REG_7 $end
 $var wire 4 . bChunk_2 $end
 $var wire 32 / nextPartials_2_0 $end
 $var wire 32 0 nextPartials__0 $end
 $var wire 1 1 io_valid_in $end
 $var wire 1 2 io_valid_out $end
 $var wire 32 3 nextPartials__2 $end
 $var wire 32 4 nextPartials__1 $end
 $var wire 32 5 partials_3 $end
 $var wire 32 6 partials_1 $end
 $var wire 32 7 partials_2 $end
 $var wire 32 8 partials_0 $end
 $var wire 1 9 clock $end
 $var wire 4 : bChunk $end
 $var wire 32 ; initialPartials_0 $end
 $var wire 16 < io_b $end
 $var wire 32 = initialPartials_1 $end
 $var wire 16 > io_a $end
 $var wire 1 ? reset $end
 $var wire 32 @ initialPartials_2 $end
 $var wire 32 A initialPartials_3 $end
 $var wire 32 B io_out $end
 $var wire 32 C REG_3_0 $end
 $var wire 32 D REG_3_1 $end
 $var wire 32 E nextPartials_1_1 $end
 $var wire 1 F valid $end
 $var wire 32 G nextPartials_1_0 $end
 $var wire 16 H io_out_fixed $end
$upscope $end
$enddefinitions $end
$dumpvars
01
b00000000000000000000000000000000 *
02
b00000000000000000000000000000000 -
b00000000000000000000000000000000 &
b00000000000000000000000000000000 (
b00000000000000000000000000000000 #
09
b00000000000000000000000000000000 %
b00000000000000000000000000000000 $
b00000000000000000000000000000000 !
0?
b00000000000000000000000000000000 ;
b00000000000000000000000000000000 =
b00000000000000000000000000000000 7
b00000000000000000000000000000000 6
0F
b00000000000000000000000000000000 8
b00000000000000000000000000000000 3
b00000000000000000000000000000000 5
b00000000000000000000000000000000 4
b00000000000000000000000000000000 /
b0000000000000000 <
b00000000000000000000000000000000 0
b0000000000000000 >
b00000000000000000000000000000000 G
b0000 ,
b00000000000000000000000000000000 C
b0000000000000000 H
b00000000000000000000000000000000 B
b00000000000000000000000000000000 E
b00000000000000000000000000000000 D
b0000 )
b00000000000000000000000000000000 A
b00000000000000000000000000000000 @
0"
b0000 .
0'
b0000 :
0+
$end
#0
1?
#1
19
#6
b00000011010000000000000000000000 @
b00001000000000000000000000000000 A
b0100 )
b0010 ,
b1101 .
11
09
b0001 :
b00000000000000000100000000000000 ;
b0010110101000001 <
b00000000000100000000000000000000 =
b0100000000000000 >
0?
#11
b00000000000100000000000000000000 0
b00001000000000000000000000000000 3
b00000011010000000000000000000000 4
b00001000000000000000000000000000 5
b00000000000100000000000000000000 6
1F
b00000011010000000000000000000000 7
b00000000000000000100000000000000 8
19
#16
b00000000000000000000000000000000 @
b00000000000000000000000000000000 A
b0000 )
09
b0000 :
b00000000000000000000000000000000 ;
b0000 ,
b0000000000000000 <
b00000000000000000000000000000000 =
b0000 .
b0000000000000000 >
#21
b00000000000000000100000000000000 !
1"
b00001000000000000000000000000000 #
b00000011010000000000000000000000 %
b00001000000000000000000000000000 E
b00000000000100000000000000000000 &
b00000011010000000000000000000000 G
b00000000000000000000000000000000 0
b00000000000000000000000000000000 3
b00000000000000000000000000000000 4
b00000000000000000000000000000000 5
b00000000000000000000000000000000 6
b00000000000000000000000000000000 7
b00000000000000000000000000000000 8
19
#26
b00000011010000000000000000000000 @
b00001000000000000000000000000000 A
b0100 )
09
b0001 :
b00000000000000000100000000000000 ;
b0010 ,
b0010110101000001 <
b00000000000100000000000000000000 =
b1101 .
b0100000000000000 >
#31
b00000000000000000000000000000000 !
b00000000000000000000000000000000 #
b00000011010000000000000000000000 C
b00000000000100000100000000000000 $
b00001000000000000000000000000000 D
b00000000000000000000000000000000 %
b00000000000000000000000000000000 E
b00000000000000000000000000000000 &
1'
b00000000000000000000000000000000 G
b00001000000000000000000000000000 /
b00000000000100000000000000000000 0
b00001000000000000000000000000000 3
b00000011010000000000000000000000 4
b00001000000000000000000000000000 5
b00000000000100000000000000000000 6
b00000011010000000000000000000000 7
b00000000000000000100000000000000 8
19
#36
09
#41
b00000000000000000100000000000000 !
b00001000000000000000000000000000 #
b00000000000000000000000000000000 C
b00000000000000000000000000000000 $
b00000000000000000000000000000000 D
b00000011010000000000000000000000 %
b00001000000000000000000000000000 E
b00000000000100000000000000000000 &
b00000011010000000000000000000000 G
b00000011010100000100000000000000 (
b00001000000000000000000000000000 *
1+
b00000000000000000000000000000000 /
12
19
#46
09
#51
b00001011010100000100000000000000 B
b00000011010000000000000000000000 C
b00000000000100000100000000000000 $
b00001000000000000000000000000000 D
b00000000000000000000000000000000 (
b0010110101000001 H
19
b00000000000000000000000000000000 *
b00001011010100000100000000000000 -
b00001000000000000000000000000000 /
#56
09
#61
b00000000000000000000000000000000 B
b00000011010100000100000000000000 (
b0000000000000000 H
19
b00001000000000000000000000000000 *
b00000000000000000000000000000000 -
#66
09
#71
b00001011010100000100000000000000 B
b0010110101000001 H
19
b00001011010100000100000000000000 -
